{
    "path_to_timesketch_creds": "C:\\Users\\viral.gajera\\Downloads\\timesketch-chronicle-integration\\timesketch_creds.json",
    "path_to_service_account": "C:\\Users\\viral.gajera\\Downloads\\timesketch-chronicle-integration\\service_account.json",
    "sketch_name": "NEWWWWW",
    "timeline_name": "TEST CLI TLs2",
    "message": "DUMMY MSG",
    "timestamp_desc": "DUMMY MSG",
    "project_name": "chronicle-crds",
    "dataset_name": "datalake",
    "table_name": "udm_events",
    "selected_columns": [],
    "page_size": 1000,
    "chunk_size": 100,
    "start_time": "2021-11-01 00:00:00",
    "end_time": "2021-11-16 00:00:00"
}